Removed Pin From Net: NetName=Vreg2 Pin=P8-13
Removed Pin From Net: NetName=GND Pin=P8-15
Removed Pin From Net: NetName=GND Pin=P8-16
Change Component Footprint: Designator=P8 Old Footprint=HDR2X8 New Footprint=HDR2X7
Change Component Comment : Designator=P8 Old Comment=Header 8X2 New Comment=Header 7X2
Added Pin To Net: NetName=GND Pin=P8-13
Change Net Name : Old Net Name=NetP8_3 New Net Name=Sig2
Change Net Name : Old Net Name=NetP8_8 New Net Name=Sig3
Change Net Name : Old Net Name=NetP8_12 New Net Name=3V3
