Removed Pin From Net: NetName=NetD1_2 Pin=D1-2
Removed Pin From Net: NetName=GND Pin=R4-1
Removed Member From Class: ClassName=UCT Boat Schem Member=D1
Removed Member From Class: ClassName=UCT Boat Schem Member=R4
Change Net Name : Old Net Name=NetD1_2 New Net Name=NetP2_1
