Change Component Footprint: Designator=P4 Old Footprint=HDR1X2 New Footprint=Header 2
Change Component Footprint: Designator=P5 Old Footprint=HDR1X2 New Footprint=Header 2
Change Component Footprint: Designator=P6 Old Footprint=HDR1X2 New Footprint=Header 2
Change Component Footprint: Designator=P7 Old Footprint=HDR1X2 New Footprint=Header 2
Change Component Footprint: Designator=P8 Old Footprint=HDR1X2 New Footprint=Header 2
Change Component Footprint: Designator=P10 Old Footprint=HDR1X2 New Footprint=Header 2
