Change Component Designator: OldDesignator=D2 NewDesignator=D1
Change Component Designator: OldDesignator=D4 NewDesignator=D2
Change Net Name : Old Net Name=NetD2_2 New Net Name=NetD1_2
Change Net Name : Old Net Name=NetD4_2 New Net Name=NetD2_2
