Removed Pin From Net: NetName=NetP3_3 Pin=U?-1
Removed Pin From Net: NetName=NetP3_1 Pin=U?-2
Removed Pin From Net: NetName=NetP3_2 Pin=U?-3
Removed Pin From Net: NetName=GND Pin=U?-4
Removed Pin From Net: NetName=NetP1_2 Pin=U?-8
Change Component Designator: OldDesignator=U? NewDesignator=U1
Added Pin To Net: NetName=NetP3_3 Pin=U1-1
Added Pin To Net: NetName=NetP3_1 Pin=U1-2
Added Pin To Net: NetName=NetP3_2 Pin=U1-3
